^D:\CODE\COMPUTER GRAPHIC\SDL\PROJECT1\PROJECT1\CIRCLE.CPP
/c /I"D:\CODE\COMPUTER GRAPHIC\SDL\SDL2-2.0.8\INCLUDE" /ZI /nologo /W3 /WX- /diagnostics:classic /sdl /Od /Oy- /D _MBCS /Gm- /EHsc /RTC1 /MDd /GS /fp:precise /Zc:wchar_t /Zc:forScope /Zc:inline /Fo"DEBUG\\" /Fd"DEBUG\VC141.PDB" /Gd /TP /analyze- /FC D:\CODE\COMPUTER GRAPHIC\SDL\PROJECT1\PROJECT1\CIRCLE.CPP
^D:\CODE\COMPUTER GRAPHIC\SDL\PROJECT1\PROJECT1\PARAPOL.CPP
/c /I"D:\CODE\COMPUTER GRAPHIC\SDL\SDL2-2.0.8\INCLUDE" /ZI /nologo /W3 /WX- /diagnostics:classic /sdl /Od /Oy- /D _MBCS /Gm- /EHsc /RTC1 /MDd /GS /fp:precise /Zc:wchar_t /Zc:forScope /Zc:inline /Fo"DEBUG\\" /Fd"DEBUG\VC141.PDB" /Gd /TP /analyze- /FC D:\CODE\COMPUTER GRAPHIC\SDL\PROJECT1\PROJECT1\PARAPOL.CPP
^D:\CODE\COMPUTER GRAPHIC\SDL\PROJECT1\PROJECT1\ELLIPSE.CPP
/c /I"D:\CODE\COMPUTER GRAPHIC\SDL\SDL2-2.0.8\INCLUDE" /ZI /nologo /W3 /WX- /diagnostics:classic /sdl /Od /Oy- /D _MBCS /Gm- /EHsc /RTC1 /MDd /GS /fp:precise /Zc:wchar_t /Zc:forScope /Zc:inline /Fo"DEBUG\\" /Fd"DEBUG\VC141.PDB" /Gd /TP /analyze- /FC D:\CODE\COMPUTER GRAPHIC\SDL\PROJECT1\PROJECT1\ELLIPSE.CPP
^D:\CODE\COMPUTER GRAPHIC\SDL\PROJECT1\PROJECT1\DRAWPOLYGON.CPP
/c /I"D:\CODE\COMPUTER GRAPHIC\SDL\SDL2-2.0.8\INCLUDE" /ZI /nologo /W3 /WX- /diagnostics:classic /sdl /Od /Oy- /D _MBCS /Gm- /EHsc /RTC1 /MDd /GS /fp:precise /Zc:wchar_t /Zc:forScope /Zc:inline /Fo"DEBUG\\" /Fd"DEBUG\VC141.PDB" /Gd /TP /analyze- /FC D:\CODE\COMPUTER GRAPHIC\SDL\PROJECT1\PROJECT1\DRAWPOLYGON.CPP
^D:\CODE\COMPUTER GRAPHIC\SDL\PROJECT1\PROJECT1\CLIPPING.CPP
/c /I"D:\CODE\COMPUTER GRAPHIC\SDL\SDL2-2.0.8\INCLUDE" /ZI /nologo /W3 /WX- /diagnostics:classic /sdl /Od /Oy- /D _MBCS /Gm- /EHsc /RTC1 /MDd /GS /fp:precise /Zc:wchar_t /Zc:forScope /Zc:inline /Fo"DEBUG\\" /Fd"DEBUG\VC141.PDB" /Gd /TP /analyze- /FC D:\CODE\COMPUTER GRAPHIC\SDL\PROJECT1\PROJECT1\CLIPPING.CPP
^D:\CODE\COMPUTER GRAPHIC\SDL\PROJECT1\PROJECT1\LINE.CPP
/c /I"D:\CODE\COMPUTER GRAPHIC\SDL\SDL2-2.0.8\INCLUDE" /ZI /nologo /W3 /WX- /diagnostics:classic /sdl /Od /Oy- /D _MBCS /Gm- /EHsc /RTC1 /MDd /GS /fp:precise /Zc:wchar_t /Zc:forScope /Zc:inline /Fo"DEBUG\\" /Fd"DEBUG\VC141.PDB" /Gd /TP /analyze- /FC D:\CODE\COMPUTER GRAPHIC\SDL\PROJECT1\PROJECT1\LINE.CPP
^D:\CODE\COMPUTER GRAPHIC\SDL\PROJECT1\PROJECT1\BEZIER.CPP
/c /I"D:\CODE\COMPUTER GRAPHIC\SDL\SDL2-2.0.8\INCLUDE" /ZI /nologo /W3 /WX- /diagnostics:classic /sdl /Od /Oy- /D _MBCS /Gm- /EHsc /RTC1 /MDd /GS /fp:precise /Zc:wchar_t /Zc:forScope /Zc:inline /Fo"DEBUG\\" /Fd"DEBUG\VC141.PDB" /Gd /TP /analyze- /FC D:\CODE\COMPUTER GRAPHIC\SDL\PROJECT1\PROJECT1\BEZIER.CPP
^D:\CODE\COMPUTER GRAPHIC\SDL\PROJECT1\PROJECT1\FILLCOLOR.CPP
/c /I"D:\CODE\COMPUTER GRAPHIC\SDL\SDL2-2.0.8\INCLUDE" /ZI /nologo /W3 /WX- /diagnostics:classic /sdl /Od /Oy- /D _MBCS /Gm- /EHsc /RTC1 /MDd /GS /fp:precise /Zc:wchar_t /Zc:forScope /Zc:inline /Fo"DEBUG\\" /Fd"DEBUG\VC141.PDB" /Gd /TP /analyze- /FC D:\CODE\COMPUTER GRAPHIC\SDL\PROJECT1\PROJECT1\FILLCOLOR.CPP
^D:\CODE\COMPUTER GRAPHIC\SDL\PROJECT1\PROJECT1\MAIN.CPP
/c /I"D:\CODE\COMPUTER GRAPHIC\SDL\SDL2-2.0.8\INCLUDE" /ZI /nologo /W3 /WX- /diagnostics:classic /sdl /Od /Oy- /D _MBCS /Gm- /EHsc /RTC1 /MDd /GS /fp:precise /Zc:wchar_t /Zc:forScope /Zc:inline /Fo"DEBUG\\" /Fd"DEBUG\VC141.PDB" /Gd /TP /analyze- /FC D:\CODE\COMPUTER GRAPHIC\SDL\PROJECT1\PROJECT1\MAIN.CPP
